[
  {
    "name": "1984",
    "price": 300,
    "color": "white/black",
    "img": "https://static.yakaboo.ua/media/catalog/product/i/m/img335_8.jpg",
    "article": 33211
  },
  {
    "name": "Animal Farm",
    "price": 350,
    "color": "red/black",
    "img": "https://m.media-amazon.com/images/I/91iKjJnXCJL.jpg",
    "article": 34012
  },
  {
    "name": "Fahrenheit 451",
    "price": 250,
    "color": "white/red/black",
    "img": "https://encrypted-tbn1.gstatic.com/images?q=tbn:ANd9GcRFADq12xEBVFEIELEeq8A0PoqRp_UUrFjxfLEosw3IR5E8tzwv",
    "article": 45152
  },
  {
    "name": "Roadside Picnic",
    "price": 500,
    "color": "white/black",
    "img": "https://schicksalgemeinschaft.files.wordpress.com/2021/05/roadside-picnic-sarah-olson.jpg",
    "article": 13232
  },
  {
    "name": "Crime and Punishment",
    "price": 400,
    "color": "beige/red/black",
    "img": "https://m.media-amazon.com/images/I/71CcO-jvRUL.jpg",
    "article": 32122
  },
  {
    "name": "Green Mile",
    "price": 370,
    "color": "green/black",
    "img": "https://www.bokkilden.no/servlet/VisBildeServlet?produktId=3101931&width=600",
    "article": 39320
  },
  {
    "name": "Master and Margarita",
    "price": 420,
    "color": "beige/red/black",
    "img": "https://almabooks.com/wp-content/uploads/2016/10/9781847492425.jpg",
    "article": 11234
  },
  {
    "name": "White Guard",
    "price": 510,
    "color": "white/black",
    "img": "https://m.media-amazon.com/images/I/91XJIYNBRjL.jpg",
    "article": 42121
  },
  {
    "name": "Mountains of Madness",
    "price": 600,
    "color": "grey/blue/black",
    "img": "https://m.media-amazon.com/images/I/71DUHx1HccL.jpg",
    "article": 51512
  },
  {
    "name": "To Kill a Mocking Bird",
    "price": 580,
    "color": "white/black",
    "img": "https://thumb.knygos-static.lt/8W6qaozHZzEnay9gyi2069nt6_Q=/fit-in/0x800/https://libri-media.knygos-static.lt/4d1eefa3-88f7-4357-b361-1d3b80db3395/1",
    "article": 16236
  },
  {
    "name": "A Fall of Moondust",
    "price": 500,
    "color": "lime/black",
    "img": "https://hachette.imgix.net/books/9780575121751.jpg?auto=compress",
    "article": 44212
  },
  {
    "name": "Subtle Art of not...",
    "price": 250,
    "color": "white/orange/black",
    "img": "https://storage.googleapis.com/circlesoft/document/photos/003/719/613/original_temp_img.jpg20220812-1-1jxlgqz?1660302093",
    "article": 22114
  }
]
